[
  {
    "id": "t9lyr_I7qr-6X00_ddsAT",
    "firstName": "vivek",
    "lastName": "ingale",
    "email": "name@yourcompany11.com",
    "phoneNumber": "8787687687"
  },
  {
    "id": "9Yq9L01oScuOZvfyE1cFU",
    "firstName": "Hello",
    "lastName": "Employee",
    "email": "name@yourcompany.com",
    "phoneNumber": "9999990007",
    "address": "221B Baker Street, London"
  },
  {
    "id": "F2sbJK90mrQk5WR4Kpz_o",
    "firstName": "Hello",
    "lastName": "Employee",
    "email": "hello@yourcompanhy.com",
    "phoneNumber": "7898778789",
    "address": "221B Baker Street, London"
  },
  {
    "id": "_HLUiSFWHxYaIjzHPlt9b",
    "firstName": "test",
    "lastName": "user",
    "email": "name@yourcompany11.com",
    "phoneNumber": "8787687687",
    "address": null
  },
  {
    "id": "QavblG0PqJJdh6FPP9YFB",
    "firstName": "New user",
    "lastName": "user",
    "email": "name@yourcompany11.com",
    "phoneNumber": "1234566666",
    "address": "hnew street"
  }
]